\boolfalse {citerequest}\boolfalse {citetracker}\boolfalse {pagetracker}\boolfalse {backtracker}\relax 
\defcounter {refsection}{0}\relax 
\select@language {english}
\defcounter {refsection}{0}\relax 
\contentsline {chapter}{Abstract}{2}{chapter*.2}
\defcounter {refsection}{0}\relax 
\contentsline {chapter}{\numberline {1}Project Implementation}{3}{chapter.1}
\defcounter {refsection}{0}\relax 
\contentsline {section}{\numberline {1.1}Task 1}{3}{section.1.1}
\defcounter {refsection}{0}\relax 
\contentsline {section}{\numberline {1.2}Task 2}{3}{section.1.2}
\defcounter {refsection}{0}\relax 
\contentsline {section}{\numberline {1.3}Task 3}{3}{section.1.3}
\defcounter {refsection}{0}\relax 
\contentsline {section}{\numberline {1.4}Task 4}{4}{section.1.4}
\defcounter {refsection}{0}\relax 
\contentsline {chapter}{Bibliography}{5}{chapter*.4}
