% $ biblatex auxiliary file $
% $ biblatex version 2.2 $
% Do not modify the above lines!
%
% This is an auxiliary file used by the 'biblatex' package.
% This file may safely be deleted. It will be recreated as
% required.
%
\begingroup
\makeatletter
\@ifundefined{ver@biblatex.sty}
  {\@latex@error
     {Missing 'biblatex' package}
     {The bibliography requires the 'biblatex' package.}
      \aftergroup\endinput}
  {}
\endgroup

\entry{gonzales}{misc}{}
  \name{author}{2}{}{%
    {{}%
     {Gonzalez}{G.}%
     {R.~C.}{R.~C.}%
     {}{}%
     {}{}}%
    {{}%
     {Woods}{W.}%
     {R.~E.}{R.~E.}%
     {}{}%
     {}{}}%
  }
  \strng{namehash}{GRCWRE1}
  \strng{fullhash}{GRCWRE1}
  \field{sortinit}{G}
  \field{title}{Digital Image Processing, 3rd edition}
  \field{year}{2008}
\endentry

\lossort
\endlossort

\endinput
