\relax 
\providecommand\HyperFirstAtBeginDocument{\AtBeginDocument}
\HyperFirstAtBeginDocument{\ifx\hyper@anchor\@undefined
\global\let\oldcontentsline\contentsline
\gdef\contentsline#1#2#3#4{\oldcontentsline{#1}{#2}{#3}}
\global\let\oldnewlabel\newlabel
\gdef\newlabel#1#2{\newlabelxx{#1}#2}
\gdef\newlabelxx#1#2#3#4#5#6{\oldnewlabel{#1}{{#2}{#3}}}
\AtEndDocument{\ifx\hyper@anchor\@undefined
\let\contentsline\oldcontentsline
\let\newlabel\oldnewlabel
\fi}
\fi}
\global\let\hyper@last\relax 
\gdef\HyperFirstAtBeginDocument#1{#1}
\providecommand\HyField@AuxAddToFields[1]{}
\bibstyle{biblatex}
\bibdata{RoVi01_report-blx,vision}
\citation{biblatex-control}
\@writefile{toc}{\boolfalse {citerequest}\boolfalse {citetracker}\boolfalse {pagetracker}\boolfalse {backtracker}\relax }
\@writefile{lof}{\boolfalse {citerequest}\boolfalse {citetracker}\boolfalse {pagetracker}\boolfalse {backtracker}\relax }
\@writefile{lot}{\boolfalse {citerequest}\boolfalse {citetracker}\boolfalse {pagetracker}\boolfalse {backtracker}\relax }
\select@language{english}
\@writefile{toc}{\defcounter {refsection}{0}\relax }\@writefile{toc}{\select@language{english}}
\@writefile{lof}{\defcounter {refsection}{0}\relax }\@writefile{lof}{\select@language{english}}
\@writefile{lot}{\defcounter {refsection}{0}\relax }\@writefile{lot}{\select@language{english}}
\@writefile{toc}{\defcounter {refsection}{0}\relax }\@writefile{toc}{\contentsline {chapter}{Abstract}{2}{chapter*.2}}
\@writefile{lof}{\defcounter {refsection}{0}\relax }\@writefile{lof}{\addvspace {10\p@ }}
\@writefile{lot}{\defcounter {refsection}{0}\relax }\@writefile{lot}{\addvspace {10\p@ }}
\@writefile{toc}{\defcounter {refsection}{0}\relax }\@writefile{toc}{\contentsline {chapter}{\numberline {1}General Information}{3}{chapter.1}}
\@writefile{lof}{\defcounter {refsection}{0}\relax }\@writefile{lof}{\addvspace {10\p@ }}
\@writefile{lot}{\defcounter {refsection}{0}\relax }\@writefile{lot}{\addvspace {10\p@ }}
\@writefile{toc}{\defcounter {refsection}{0}\relax }\@writefile{toc}{\contentsline {section}{\numberline {1.1}Purpose}{3}{section.1.1}}
\@writefile{toc}{\defcounter {refsection}{0}\relax }\@writefile{toc}{\contentsline {section}{\numberline {1.2}Procedure}{3}{section.1.2}}
\citation{gonzales}
\@writefile{toc}{\defcounter {refsection}{0}\relax }\@writefile{toc}{\contentsline {chapter}{\numberline {2}Observation and data}{4}{chapter.2}}
\@writefile{lof}{\defcounter {refsection}{0}\relax }\@writefile{lof}{\addvspace {10\p@ }}
\@writefile{lot}{\defcounter {refsection}{0}\relax }\@writefile{lot}{\addvspace {10\p@ }}
\@writefile{toc}{\defcounter {refsection}{0}\relax }\@writefile{toc}{\contentsline {section}{\numberline {2.1}Peppers 1}{4}{section.2.1}}
\providecommand*\caption@xref[2]{\@setref\relax\@undefined{#1}}
\newlabel{fig:peppers1}{{2.1a}{4}{Subfigure 2 2.1a\relax }{subfigure.2.1.1}{}}
\newlabel{sub@fig:peppers1}{{(a)}{a}{Subfigure 2 2.1a\relax }{subfigure.2.1.1}{}}
\newlabel{fig:peppers1histogram}{{2.1b}{4}{Subfigure 2 2.1b\relax }{subfigure.2.1.2}{}}
\newlabel{sub@fig:peppers1histogram}{{(b)}{b}{Subfigure 2 2.1b\relax }{subfigure.2.1.2}{}}
\@writefile{lof}{\defcounter {refsection}{0}\relax }\@writefile{lof}{\contentsline {figure}{\numberline {2.1}{\ignorespaces Peppers 1 and generated histogram\relax }}{4}{figure.caption.3}}
\@writefile{lof}{\defcounter {refsection}{0}\relax }\@writefile{lof}{\contentsline {subfigure}{\numberline{(a)}{\ignorespaces {}}}{4}{subfigure.1.1}}
\@writefile{lof}{\defcounter {refsection}{0}\relax }\@writefile{lof}{\contentsline {subfigure}{\numberline{(b)}{\ignorespaces {}}}{4}{subfigure.1.2}}
\newlabel{fig:p1_cl_1}{{2.2a}{5}{Subfigure 2 2.2a\relax }{subfigure.2.2.1}{}}
\newlabel{sub@fig:p1_cl_1}{{(a)}{a}{Subfigure 2 2.2a\relax }{subfigure.2.2.1}{}}
\newlabel{fig:p1_cl_2}{{2.2b}{5}{Subfigure 2 2.2b\relax }{subfigure.2.2.2}{}}
\newlabel{sub@fig:p1_cl_2}{{(b)}{b}{Subfigure 2 2.2b\relax }{subfigure.2.2.2}{}}
\newlabel{fig:p1_cl_3}{{2.2c}{5}{Subfigure 2 2.2c\relax }{subfigure.2.2.3}{}}
\newlabel{sub@fig:p1_cl_3}{{(c)}{c}{Subfigure 2 2.2c\relax }{subfigure.2.2.3}{}}
\newlabel{fig:p1_cl_1_hist}{{2.2d}{5}{Subfigure 2 2.2d\relax }{subfigure.2.2.4}{}}
\newlabel{sub@fig:p1_cl_1_hist}{{(d)}{d}{Subfigure 2 2.2d\relax }{subfigure.2.2.4}{}}
\newlabel{fig:p1_cl_2_hist}{{2.2e}{5}{Subfigure 2 2.2e\relax }{subfigure.2.2.5}{}}
\newlabel{sub@fig:p1_cl_2_hist}{{(e)}{e}{Subfigure 2 2.2e\relax }{subfigure.2.2.5}{}}
\newlabel{fig:p1_cl_3_hist}{{2.2f}{5}{Subfigure 2 2.2f\relax }{subfigure.2.2.6}{}}
\newlabel{sub@fig:p1_cl_3_hist}{{(f)}{f}{Subfigure 2 2.2f\relax }{subfigure.2.2.6}{}}
\@writefile{lof}{\defcounter {refsection}{0}\relax }\@writefile{lof}{\contentsline {figure}{\numberline {2.2}{\ignorespaces Closeup 1-3 of Peppers 1 and corresponding histogram\relax }}{5}{figure.caption.4}}
\@writefile{lof}{\defcounter {refsection}{0}\relax }\@writefile{lof}{\contentsline {subfigure}{\numberline{(a)}{\ignorespaces {}}}{5}{subfigure.2.1}}
\@writefile{lof}{\defcounter {refsection}{0}\relax }\@writefile{lof}{\contentsline {subfigure}{\numberline{(b)}{\ignorespaces {}}}{5}{subfigure.2.2}}
\@writefile{lof}{\defcounter {refsection}{0}\relax }\@writefile{lof}{\contentsline {subfigure}{\numberline{(c)}{\ignorespaces {}}}{5}{subfigure.2.3}}
\@writefile{lof}{\defcounter {refsection}{0}\relax }\@writefile{lof}{\contentsline {subfigure}{\numberline{(d)}{\ignorespaces {}}}{5}{subfigure.2.4}}
\@writefile{lof}{\defcounter {refsection}{0}\relax }\@writefile{lof}{\contentsline {subfigure}{\numberline{(e)}{\ignorespaces {}}}{5}{subfigure.2.5}}
\@writefile{lof}{\defcounter {refsection}{0}\relax }\@writefile{lof}{\contentsline {subfigure}{\numberline{(f)}{\ignorespaces {}}}{5}{subfigure.2.6}}
\citation{gonzales}
\@writefile{toc}{\defcounter {refsection}{0}\relax }\@writefile{toc}{\contentsline {section}{\numberline {2.2}Peppers 2}{6}{section.2.2}}
\newlabel{fig:peppers2}{{2.3a}{6}{Subfigure 2 2.3a\relax }{subfigure.2.3.1}{}}
\newlabel{sub@fig:peppers2}{{(a)}{a}{Subfigure 2 2.3a\relax }{subfigure.2.3.1}{}}
\newlabel{fig:peppers2histogram}{{2.3b}{6}{Subfigure 2 2.3b\relax }{subfigure.2.3.2}{}}
\newlabel{sub@fig:peppers2histogram}{{(b)}{b}{Subfigure 2 2.3b\relax }{subfigure.2.3.2}{}}
\@writefile{lof}{\defcounter {refsection}{0}\relax }\@writefile{lof}{\contentsline {figure}{\numberline {2.3}{\ignorespaces Peppers 2 and generated histogram\relax }}{6}{figure.caption.5}}
\@writefile{lof}{\defcounter {refsection}{0}\relax }\@writefile{lof}{\contentsline {subfigure}{\numberline{(a)}{\ignorespaces {}}}{6}{subfigure.3.1}}
\@writefile{lof}{\defcounter {refsection}{0}\relax }\@writefile{lof}{\contentsline {subfigure}{\numberline{(b)}{\ignorespaces {}}}{6}{subfigure.3.2}}
\newlabel{fig:p2_cl_1}{{2.4a}{6}{Subfigure 2 2.4a\relax }{subfigure.2.4.1}{}}
\newlabel{sub@fig:p2_cl_1}{{(a)}{a}{Subfigure 2 2.4a\relax }{subfigure.2.4.1}{}}
\newlabel{fig:p2_cl_2}{{2.4b}{6}{Subfigure 2 2.4b\relax }{subfigure.2.4.2}{}}
\newlabel{sub@fig:p2_cl_2}{{(b)}{b}{Subfigure 2 2.4b\relax }{subfigure.2.4.2}{}}
\newlabel{fig:p2_cl_3}{{2.4c}{6}{Subfigure 2 2.4c\relax }{subfigure.2.4.3}{}}
\newlabel{sub@fig:p2_cl_3}{{(c)}{c}{Subfigure 2 2.4c\relax }{subfigure.2.4.3}{}}
\newlabel{fig:p2_cl_1_hist}{{2.4d}{6}{Subfigure 2 2.4d\relax }{subfigure.2.4.4}{}}
\newlabel{sub@fig:p2_cl_1_hist}{{(d)}{d}{Subfigure 2 2.4d\relax }{subfigure.2.4.4}{}}
\newlabel{fig:p2_cl_2_hist}{{2.4e}{6}{Subfigure 2 2.4e\relax }{subfigure.2.4.5}{}}
\newlabel{sub@fig:p2_cl_2_hist}{{(e)}{e}{Subfigure 2 2.4e\relax }{subfigure.2.4.5}{}}
\newlabel{fig:p2_cl_3_hist}{{2.4f}{6}{Subfigure 2 2.4f\relax }{subfigure.2.4.6}{}}
\newlabel{sub@fig:p2_cl_3_hist}{{(f)}{f}{Subfigure 2 2.4f\relax }{subfigure.2.4.6}{}}
\@writefile{lof}{\defcounter {refsection}{0}\relax }\@writefile{lof}{\contentsline {figure}{\numberline {2.4}{\ignorespaces Closeup 1-3 of Peppers 2 and corresponding histogram\relax }}{6}{figure.caption.6}}
\@writefile{lof}{\defcounter {refsection}{0}\relax }\@writefile{lof}{\contentsline {subfigure}{\numberline{(a)}{\ignorespaces {}}}{6}{subfigure.4.1}}
\@writefile{lof}{\defcounter {refsection}{0}\relax }\@writefile{lof}{\contentsline {subfigure}{\numberline{(b)}{\ignorespaces {}}}{6}{subfigure.4.2}}
\@writefile{lof}{\defcounter {refsection}{0}\relax }\@writefile{lof}{\contentsline {subfigure}{\numberline{(c)}{\ignorespaces {}}}{6}{subfigure.4.3}}
\@writefile{lof}{\defcounter {refsection}{0}\relax }\@writefile{lof}{\contentsline {subfigure}{\numberline{(d)}{\ignorespaces {}}}{6}{subfigure.4.4}}
\@writefile{lof}{\defcounter {refsection}{0}\relax }\@writefile{lof}{\contentsline {subfigure}{\numberline{(e)}{\ignorespaces {}}}{6}{subfigure.4.5}}
\@writefile{lof}{\defcounter {refsection}{0}\relax }\@writefile{lof}{\contentsline {subfigure}{\numberline{(f)}{\ignorespaces {}}}{6}{subfigure.4.6}}
\citation{gonzales}
\@writefile{toc}{\defcounter {refsection}{0}\relax }\@writefile{toc}{\contentsline {section}{\numberline {2.3}Peppers 3}{8}{section.2.3}}
\newlabel{fig:peppers3}{{2.5a}{8}{Subfigure 2 2.5a\relax }{subfigure.2.5.1}{}}
\newlabel{sub@fig:peppers3}{{(a)}{a}{Subfigure 2 2.5a\relax }{subfigure.2.5.1}{}}
\newlabel{fig:peppers3histogram}{{2.5b}{8}{Subfigure 2 2.5b\relax }{subfigure.2.5.2}{}}
\newlabel{sub@fig:peppers3histogram}{{(b)}{b}{Subfigure 2 2.5b\relax }{subfigure.2.5.2}{}}
\@writefile{lof}{\defcounter {refsection}{0}\relax }\@writefile{lof}{\contentsline {figure}{\numberline {2.5}{\ignorespaces Peppers 3 and generated histogram\relax }}{8}{figure.caption.7}}
\@writefile{lof}{\defcounter {refsection}{0}\relax }\@writefile{lof}{\contentsline {subfigure}{\numberline{(a)}{\ignorespaces {}}}{8}{subfigure.5.1}}
\@writefile{lof}{\defcounter {refsection}{0}\relax }\@writefile{lof}{\contentsline {subfigure}{\numberline{(b)}{\ignorespaces {}}}{8}{subfigure.5.2}}
\newlabel{fig:p3_cl_1}{{2.6a}{8}{Subfigure 2 2.6a\relax }{subfigure.2.6.1}{}}
\newlabel{sub@fig:p3_cl_1}{{(a)}{a}{Subfigure 2 2.6a\relax }{subfigure.2.6.1}{}}
\newlabel{fig:p3_cl_2}{{2.6b}{8}{Subfigure 2 2.6b\relax }{subfigure.2.6.2}{}}
\newlabel{sub@fig:p3_cl_2}{{(b)}{b}{Subfigure 2 2.6b\relax }{subfigure.2.6.2}{}}
\newlabel{fig:p3_cl_3}{{2.6c}{8}{Subfigure 2 2.6c\relax }{subfigure.2.6.3}{}}
\newlabel{sub@fig:p3_cl_3}{{(c)}{c}{Subfigure 2 2.6c\relax }{subfigure.2.6.3}{}}
\newlabel{fig:p3_cl_1_hist}{{2.6d}{8}{Subfigure 2 2.6d\relax }{subfigure.2.6.4}{}}
\newlabel{sub@fig:p3_cl_1_hist}{{(d)}{d}{Subfigure 2 2.6d\relax }{subfigure.2.6.4}{}}
\newlabel{fig:p3_cl_2_hist}{{2.6e}{8}{Subfigure 2 2.6e\relax }{subfigure.2.6.5}{}}
\newlabel{sub@fig:p3_cl_2_hist}{{(e)}{e}{Subfigure 2 2.6e\relax }{subfigure.2.6.5}{}}
\newlabel{fig:p3_cl_3_hist}{{2.6f}{8}{Subfigure 2 2.6f\relax }{subfigure.2.6.6}{}}
\newlabel{sub@fig:p3_cl_3_hist}{{(f)}{f}{Subfigure 2 2.6f\relax }{subfigure.2.6.6}{}}
\@writefile{lof}{\defcounter {refsection}{0}\relax }\@writefile{lof}{\contentsline {figure}{\numberline {2.6}{\ignorespaces Closeup 1-3 of Peppers 3 and corresponding histogram\relax }}{8}{figure.caption.8}}
\@writefile{lof}{\defcounter {refsection}{0}\relax }\@writefile{lof}{\contentsline {subfigure}{\numberline{(a)}{\ignorespaces {}}}{8}{subfigure.6.1}}
\@writefile{lof}{\defcounter {refsection}{0}\relax }\@writefile{lof}{\contentsline {subfigure}{\numberline{(b)}{\ignorespaces {}}}{8}{subfigure.6.2}}
\@writefile{lof}{\defcounter {refsection}{0}\relax }\@writefile{lof}{\contentsline {subfigure}{\numberline{(c)}{\ignorespaces {}}}{8}{subfigure.6.3}}
\@writefile{lof}{\defcounter {refsection}{0}\relax }\@writefile{lof}{\contentsline {subfigure}{\numberline{(d)}{\ignorespaces {}}}{8}{subfigure.6.4}}
\@writefile{lof}{\defcounter {refsection}{0}\relax }\@writefile{lof}{\contentsline {subfigure}{\numberline{(e)}{\ignorespaces {}}}{8}{subfigure.6.5}}
\@writefile{lof}{\defcounter {refsection}{0}\relax }\@writefile{lof}{\contentsline {subfigure}{\numberline{(f)}{\ignorespaces {}}}{8}{subfigure.6.6}}
\citation{gonzales}
\@writefile{toc}{\defcounter {refsection}{0}\relax }\@writefile{toc}{\contentsline {section}{\numberline {2.4}Peppers 4}{9}{section.2.4}}
\newlabel{fig:peppers4}{{2.7a}{9}{Subfigure 2 2.7a\relax }{subfigure.2.7.1}{}}
\newlabel{sub@fig:peppers4}{{(a)}{a}{Subfigure 2 2.7a\relax }{subfigure.2.7.1}{}}
\newlabel{fig:peppers4histogram}{{2.7b}{9}{Subfigure 2 2.7b\relax }{subfigure.2.7.2}{}}
\newlabel{sub@fig:peppers4histogram}{{(b)}{b}{Subfigure 2 2.7b\relax }{subfigure.2.7.2}{}}
\@writefile{lof}{\defcounter {refsection}{0}\relax }\@writefile{lof}{\contentsline {figure}{\numberline {2.7}{\ignorespaces Peppers 4 and generated histogram\relax }}{9}{figure.caption.9}}
\@writefile{lof}{\defcounter {refsection}{0}\relax }\@writefile{lof}{\contentsline {subfigure}{\numberline{(a)}{\ignorespaces {}}}{9}{subfigure.7.1}}
\@writefile{lof}{\defcounter {refsection}{0}\relax }\@writefile{lof}{\contentsline {subfigure}{\numberline{(b)}{\ignorespaces {}}}{9}{subfigure.7.2}}
\newlabel{fig:p4_cl_1}{{2.8a}{9}{Subfigure 2 2.8a\relax }{subfigure.2.8.1}{}}
\newlabel{sub@fig:p4_cl_1}{{(a)}{a}{Subfigure 2 2.8a\relax }{subfigure.2.8.1}{}}
\newlabel{fig:p4_cl_2}{{2.8b}{9}{Subfigure 2 2.8b\relax }{subfigure.2.8.2}{}}
\newlabel{sub@fig:p4_cl_2}{{(b)}{b}{Subfigure 2 2.8b\relax }{subfigure.2.8.2}{}}
\newlabel{fig:p4_cl_3}{{2.8c}{9}{Subfigure 2 2.8c\relax }{subfigure.2.8.3}{}}
\newlabel{sub@fig:p4_cl_3}{{(c)}{c}{Subfigure 2 2.8c\relax }{subfigure.2.8.3}{}}
\newlabel{fig:p4_cl_1_hist}{{2.8d}{9}{Subfigure 2 2.8d\relax }{subfigure.2.8.4}{}}
\newlabel{sub@fig:p4_cl_1_hist}{{(d)}{d}{Subfigure 2 2.8d\relax }{subfigure.2.8.4}{}}
\newlabel{fig:p4_cl_2_hist}{{2.8e}{9}{Subfigure 2 2.8e\relax }{subfigure.2.8.5}{}}
\newlabel{sub@fig:p4_cl_2_hist}{{(e)}{e}{Subfigure 2 2.8e\relax }{subfigure.2.8.5}{}}
\newlabel{fig:p4_cl_3_hist}{{2.8f}{9}{Subfigure 2 2.8f\relax }{subfigure.2.8.6}{}}
\newlabel{sub@fig:p4_cl_3_hist}{{(f)}{f}{Subfigure 2 2.8f\relax }{subfigure.2.8.6}{}}
\@writefile{lof}{\defcounter {refsection}{0}\relax }\@writefile{lof}{\contentsline {figure}{\numberline {2.8}{\ignorespaces Closeup 1-3 of Peppers 4 and corresponding histogram\relax }}{9}{figure.caption.10}}
\@writefile{lof}{\defcounter {refsection}{0}\relax }\@writefile{lof}{\contentsline {subfigure}{\numberline{(a)}{\ignorespaces {}}}{9}{subfigure.8.1}}
\@writefile{lof}{\defcounter {refsection}{0}\relax }\@writefile{lof}{\contentsline {subfigure}{\numberline{(b)}{\ignorespaces {}}}{9}{subfigure.8.2}}
\@writefile{lof}{\defcounter {refsection}{0}\relax }\@writefile{lof}{\contentsline {subfigure}{\numberline{(c)}{\ignorespaces {}}}{9}{subfigure.8.3}}
\@writefile{lof}{\defcounter {refsection}{0}\relax }\@writefile{lof}{\contentsline {subfigure}{\numberline{(d)}{\ignorespaces {}}}{9}{subfigure.8.4}}
\@writefile{lof}{\defcounter {refsection}{0}\relax }\@writefile{lof}{\contentsline {subfigure}{\numberline{(e)}{\ignorespaces {}}}{9}{subfigure.8.5}}
\@writefile{lof}{\defcounter {refsection}{0}\relax }\@writefile{lof}{\contentsline {subfigure}{\numberline{(f)}{\ignorespaces {}}}{9}{subfigure.8.6}}
\@writefile{toc}{\defcounter {refsection}{0}\relax }\@writefile{toc}{\contentsline {chapter}{\numberline {3}Analysis of data}{10}{chapter.3}}
\@writefile{lof}{\defcounter {refsection}{0}\relax }\@writefile{lof}{\addvspace {10\p@ }}
\@writefile{lot}{\defcounter {refsection}{0}\relax }\@writefile{lot}{\addvspace {10\p@ }}
\@writefile{toc}{\defcounter {refsection}{0}\relax }\@writefile{toc}{\contentsline {section}{\numberline {3.1}Peppers 1}{10}{section.3.1}}
\newlabel{eqn:ar_mean}{{3.1}{10}{Peppers 1\relax }{equation.3.1.1}{}}
\newlabel{fig:p1f1_p}{{3.1a}{10}{Subfigure 3 3.1a\relax }{subfigure.3.1.1}{}}
\newlabel{sub@fig:p1f1_p}{{(a)}{a}{Subfigure 3 3.1a\relax }{subfigure.3.1.1}{}}
\newlabel{fig:p1f1_p_hist}{{3.1b}{10}{Subfigure 3 3.1b\relax }{subfigure.3.1.2}{}}
\newlabel{sub@fig:p1f1_p_hist}{{(b)}{b}{Subfigure 3 3.1b\relax }{subfigure.3.1.2}{}}
\@writefile{lof}{\defcounter {refsection}{0}\relax }\@writefile{lof}{\contentsline {figure}{\numberline {3.1}{\ignorespaces Analyzing image after arithmetic mean filter.\relax }}{10}{figure.caption.11}}
\@writefile{lof}{\defcounter {refsection}{0}\relax }\@writefile{lof}{\contentsline {subfigure}{\numberline{(a)}{\ignorespaces {}}}{10}{subfigure.1.1}}
\@writefile{lof}{\defcounter {refsection}{0}\relax }\@writefile{lof}{\contentsline {subfigure}{\numberline{(b)}{\ignorespaces {}}}{10}{subfigure.1.2}}
\newlabel{fig:p1f1_s1_p}{{3.2a}{11}{Subfigure 3 3.2a\relax }{subfigure.3.2.1}{}}
\newlabel{sub@fig:p1f1_s1_p}{{(a)}{a}{Subfigure 3 3.2a\relax }{subfigure.3.2.1}{}}
\newlabel{fig:p1f1_s2_p}{{3.2b}{11}{Subfigure 3 3.2b\relax }{subfigure.3.2.2}{}}
\newlabel{sub@fig:p1f1_s2_p}{{(b)}{b}{Subfigure 3 3.2b\relax }{subfigure.3.2.2}{}}
\newlabel{fig:p1f1_s3_p}{{3.2c}{11}{Subfigure 3 3.2c\relax }{subfigure.3.2.3}{}}
\newlabel{sub@fig:p1f1_s3_p}{{(c)}{c}{Subfigure 3 3.2c\relax }{subfigure.3.2.3}{}}
\newlabel{fig:p1f1_s1_p_hist}{{3.2d}{11}{Subfigure 3 3.2d\relax }{subfigure.3.2.4}{}}
\newlabel{sub@fig:p1f1_s1_p_hist}{{(d)}{d}{Subfigure 3 3.2d\relax }{subfigure.3.2.4}{}}
\newlabel{fig:p1f1_s2_p_hist}{{3.2e}{11}{Subfigure 3 3.2e\relax }{subfigure.3.2.5}{}}
\newlabel{sub@fig:p1f1_s2_p_hist}{{(e)}{e}{Subfigure 3 3.2e\relax }{subfigure.3.2.5}{}}
\newlabel{fig:p1f1_s3_p_hist}{{3.2f}{11}{Subfigure 3 3.2f\relax }{subfigure.3.2.6}{}}
\newlabel{sub@fig:p1f1_s3_p_hist}{{(f)}{f}{Subfigure 3 3.2f\relax }{subfigure.3.2.6}{}}
\@writefile{lof}{\defcounter {refsection}{0}\relax }\@writefile{lof}{\contentsline {figure}{\numberline {3.2}{\ignorespaces Retrieving samples after arithmetic mean filter.\relax }}{11}{figure.caption.12}}
\@writefile{lof}{\defcounter {refsection}{0}\relax }\@writefile{lof}{\contentsline {subfigure}{\numberline{(a)}{\ignorespaces {}}}{11}{subfigure.2.1}}
\@writefile{lof}{\defcounter {refsection}{0}\relax }\@writefile{lof}{\contentsline {subfigure}{\numberline{(b)}{\ignorespaces {}}}{11}{subfigure.2.2}}
\@writefile{lof}{\defcounter {refsection}{0}\relax }\@writefile{lof}{\contentsline {subfigure}{\numberline{(c)}{\ignorespaces {}}}{11}{subfigure.2.3}}
\@writefile{lof}{\defcounter {refsection}{0}\relax }\@writefile{lof}{\contentsline {subfigure}{\numberline{(d)}{\ignorespaces {}}}{11}{subfigure.2.4}}
\@writefile{lof}{\defcounter {refsection}{0}\relax }\@writefile{lof}{\contentsline {subfigure}{\numberline{(e)}{\ignorespaces {}}}{11}{subfigure.2.5}}
\@writefile{lof}{\defcounter {refsection}{0}\relax }\@writefile{lof}{\contentsline {subfigure}{\numberline{(f)}{\ignorespaces {}}}{11}{subfigure.2.6}}
\newlabel{fig:p1f2_p}{{3.3a}{11}{Subfigure 3 3.3a\relax }{subfigure.3.3.1}{}}
\newlabel{sub@fig:p1f2_p}{{(a)}{a}{Subfigure 3 3.3a\relax }{subfigure.3.3.1}{}}
\newlabel{fig:p1f2_p_hist}{{3.3b}{11}{Subfigure 3 3.3b\relax }{subfigure.3.3.2}{}}
\newlabel{sub@fig:p1f2_p_hist}{{(b)}{b}{Subfigure 3 3.3b\relax }{subfigure.3.3.2}{}}
\@writefile{lof}{\defcounter {refsection}{0}\relax }\@writefile{lof}{\contentsline {figure}{\numberline {3.3}{\ignorespaces Analyzing image after median filter.\relax }}{11}{figure.caption.13}}
\@writefile{lof}{\defcounter {refsection}{0}\relax }\@writefile{lof}{\contentsline {subfigure}{\numberline{(a)}{\ignorespaces {}}}{11}{subfigure.3.1}}
\@writefile{lof}{\defcounter {refsection}{0}\relax }\@writefile{lof}{\contentsline {subfigure}{\numberline{(b)}{\ignorespaces {}}}{11}{subfigure.3.2}}
\newlabel{fig:p1f2_s1_p}{{3.4a}{12}{Subfigure 3 3.4a\relax }{subfigure.3.4.1}{}}
\newlabel{sub@fig:p1f2_s1_p}{{(a)}{a}{Subfigure 3 3.4a\relax }{subfigure.3.4.1}{}}
\newlabel{fig:p1f2_s2_p}{{3.4b}{12}{Subfigure 3 3.4b\relax }{subfigure.3.4.2}{}}
\newlabel{sub@fig:p1f2_s2_p}{{(b)}{b}{Subfigure 3 3.4b\relax }{subfigure.3.4.2}{}}
\newlabel{fig:p1f2_s3_p}{{3.4c}{12}{Subfigure 3 3.4c\relax }{subfigure.3.4.3}{}}
\newlabel{sub@fig:p1f2_s3_p}{{(c)}{c}{Subfigure 3 3.4c\relax }{subfigure.3.4.3}{}}
\newlabel{fig:p1f2_s1_p_hist}{{3.4d}{12}{Subfigure 3 3.4d\relax }{subfigure.3.4.4}{}}
\newlabel{sub@fig:p1f2_s1_p_hist}{{(d)}{d}{Subfigure 3 3.4d\relax }{subfigure.3.4.4}{}}
\newlabel{fig:p1f2_s2_p_hist}{{3.4e}{12}{Subfigure 3 3.4e\relax }{subfigure.3.4.5}{}}
\newlabel{sub@fig:p1f2_s2_p_hist}{{(e)}{e}{Subfigure 3 3.4e\relax }{subfigure.3.4.5}{}}
\newlabel{fig:p1f2_s3_p_hist}{{3.4f}{12}{Subfigure 3 3.4f\relax }{subfigure.3.4.6}{}}
\newlabel{sub@fig:p1f2_s3_p_hist}{{(f)}{f}{Subfigure 3 3.4f\relax }{subfigure.3.4.6}{}}
\@writefile{lof}{\defcounter {refsection}{0}\relax }\@writefile{lof}{\contentsline {figure}{\numberline {3.4}{\ignorespaces Retrieving samples after median filter.\relax }}{12}{figure.caption.14}}
\@writefile{lof}{\defcounter {refsection}{0}\relax }\@writefile{lof}{\contentsline {subfigure}{\numberline{(a)}{\ignorespaces {}}}{12}{subfigure.4.1}}
\@writefile{lof}{\defcounter {refsection}{0}\relax }\@writefile{lof}{\contentsline {subfigure}{\numberline{(b)}{\ignorespaces {}}}{12}{subfigure.4.2}}
\@writefile{lof}{\defcounter {refsection}{0}\relax }\@writefile{lof}{\contentsline {subfigure}{\numberline{(c)}{\ignorespaces {}}}{12}{subfigure.4.3}}
\@writefile{lof}{\defcounter {refsection}{0}\relax }\@writefile{lof}{\contentsline {subfigure}{\numberline{(d)}{\ignorespaces {}}}{12}{subfigure.4.4}}
\@writefile{lof}{\defcounter {refsection}{0}\relax }\@writefile{lof}{\contentsline {subfigure}{\numberline{(e)}{\ignorespaces {}}}{12}{subfigure.4.5}}
\@writefile{lof}{\defcounter {refsection}{0}\relax }\@writefile{lof}{\contentsline {subfigure}{\numberline{(f)}{\ignorespaces {}}}{12}{subfigure.4.6}}
\@writefile{toc}{\defcounter {refsection}{0}\relax }\@writefile{toc}{\contentsline {section}{\numberline {3.2}Peppers 2}{13}{section.3.2}}
\newlabel{fig:p2f1_p}{{3.5a}{13}{Subfigure 3 3.5a\relax }{subfigure.3.5.1}{}}
\newlabel{sub@fig:p2f1_p}{{(a)}{a}{Subfigure 3 3.5a\relax }{subfigure.3.5.1}{}}
\newlabel{fig:p2f1_p_hist}{{3.5b}{13}{Subfigure 3 3.5b\relax }{subfigure.3.5.2}{}}
\newlabel{sub@fig:p2f1_p_hist}{{(b)}{b}{Subfigure 3 3.5b\relax }{subfigure.3.5.2}{}}
\@writefile{lof}{\defcounter {refsection}{0}\relax }\@writefile{lof}{\contentsline {figure}{\numberline {3.5}{\ignorespaces Analyzing image after median filter.\relax }}{13}{figure.caption.15}}
\@writefile{lof}{\defcounter {refsection}{0}\relax }\@writefile{lof}{\contentsline {subfigure}{\numberline{(a)}{\ignorespaces {}}}{13}{subfigure.5.1}}
\@writefile{lof}{\defcounter {refsection}{0}\relax }\@writefile{lof}{\contentsline {subfigure}{\numberline{(b)}{\ignorespaces {}}}{13}{subfigure.5.2}}
\newlabel{fig:p2f1_s1_p}{{3.6a}{14}{Subfigure 3 3.6a\relax }{subfigure.3.6.1}{}}
\newlabel{sub@fig:p2f1_s1_p}{{(a)}{a}{Subfigure 3 3.6a\relax }{subfigure.3.6.1}{}}
\newlabel{fig:p2f1_s2_p}{{3.6b}{14}{Subfigure 3 3.6b\relax }{subfigure.3.6.2}{}}
\newlabel{sub@fig:p2f1_s2_p}{{(b)}{b}{Subfigure 3 3.6b\relax }{subfigure.3.6.2}{}}
\newlabel{fig:p2f1_s3_p}{{3.6c}{14}{Subfigure 3 3.6c\relax }{subfigure.3.6.3}{}}
\newlabel{sub@fig:p2f1_s3_p}{{(c)}{c}{Subfigure 3 3.6c\relax }{subfigure.3.6.3}{}}
\newlabel{fig:p2f1_s1_p_hist}{{3.6d}{14}{Subfigure 3 3.6d\relax }{subfigure.3.6.4}{}}
\newlabel{sub@fig:p2f1_s1_p_hist}{{(d)}{d}{Subfigure 3 3.6d\relax }{subfigure.3.6.4}{}}
\newlabel{fig:p2f1_s2_p_hist}{{3.6e}{14}{Subfigure 3 3.6e\relax }{subfigure.3.6.5}{}}
\newlabel{sub@fig:p2f1_s2_p_hist}{{(e)}{e}{Subfigure 3 3.6e\relax }{subfigure.3.6.5}{}}
\newlabel{fig:p2f1_s3_p_hist}{{3.6f}{14}{Subfigure 3 3.6f\relax }{subfigure.3.6.6}{}}
\newlabel{sub@fig:p2f1_s3_p_hist}{{(f)}{f}{Subfigure 3 3.6f\relax }{subfigure.3.6.6}{}}
\@writefile{lof}{\defcounter {refsection}{0}\relax }\@writefile{lof}{\contentsline {figure}{\numberline {3.6}{\ignorespaces Retrieving samples after 3x3 median filter.\relax }}{14}{figure.caption.16}}
\@writefile{lof}{\defcounter {refsection}{0}\relax }\@writefile{lof}{\contentsline {subfigure}{\numberline{(a)}{\ignorespaces {}}}{14}{subfigure.6.1}}
\@writefile{lof}{\defcounter {refsection}{0}\relax }\@writefile{lof}{\contentsline {subfigure}{\numberline{(b)}{\ignorespaces {}}}{14}{subfigure.6.2}}
\@writefile{lof}{\defcounter {refsection}{0}\relax }\@writefile{lof}{\contentsline {subfigure}{\numberline{(c)}{\ignorespaces {}}}{14}{subfigure.6.3}}
\@writefile{lof}{\defcounter {refsection}{0}\relax }\@writefile{lof}{\contentsline {subfigure}{\numberline{(d)}{\ignorespaces {}}}{14}{subfigure.6.4}}
\@writefile{lof}{\defcounter {refsection}{0}\relax }\@writefile{lof}{\contentsline {subfigure}{\numberline{(e)}{\ignorespaces {}}}{14}{subfigure.6.5}}
\@writefile{lof}{\defcounter {refsection}{0}\relax }\@writefile{lof}{\contentsline {subfigure}{\numberline{(f)}{\ignorespaces {}}}{14}{subfigure.6.6}}
\newlabel{fig:p2f2_p}{{3.7a}{14}{Subfigure 3 3.7a\relax }{subfigure.3.7.1}{}}
\newlabel{sub@fig:p2f2_p}{{(a)}{a}{Subfigure 3 3.7a\relax }{subfigure.3.7.1}{}}
\newlabel{fig:p2f2_p_hist}{{3.7b}{14}{Subfigure 3 3.7b\relax }{subfigure.3.7.2}{}}
\newlabel{sub@fig:p2f2_p_hist}{{(b)}{b}{Subfigure 3 3.7b\relax }{subfigure.3.7.2}{}}
\@writefile{lof}{\defcounter {refsection}{0}\relax }\@writefile{lof}{\contentsline {figure}{\numberline {3.7}{\ignorespaces Analyzing image after 3x3 arithmetic mean filter.\relax }}{14}{figure.caption.17}}
\@writefile{lof}{\defcounter {refsection}{0}\relax }\@writefile{lof}{\contentsline {subfigure}{\numberline{(a)}{\ignorespaces {}}}{14}{subfigure.7.1}}
\@writefile{lof}{\defcounter {refsection}{0}\relax }\@writefile{lof}{\contentsline {subfigure}{\numberline{(b)}{\ignorespaces {}}}{14}{subfigure.7.2}}
\newlabel{fig:p2f2_s1_p}{{3.8a}{15}{Subfigure 3 3.8a\relax }{subfigure.3.8.1}{}}
\newlabel{sub@fig:p2f2_s1_p}{{(a)}{a}{Subfigure 3 3.8a\relax }{subfigure.3.8.1}{}}
\newlabel{fig:p2f2_s2_p}{{3.8b}{15}{Subfigure 3 3.8b\relax }{subfigure.3.8.2}{}}
\newlabel{sub@fig:p2f2_s2_p}{{(b)}{b}{Subfigure 3 3.8b\relax }{subfigure.3.8.2}{}}
\newlabel{fig:p2f2_s3_p}{{3.8c}{15}{Subfigure 3 3.8c\relax }{subfigure.3.8.3}{}}
\newlabel{sub@fig:p2f2_s3_p}{{(c)}{c}{Subfigure 3 3.8c\relax }{subfigure.3.8.3}{}}
\newlabel{fig:p2f2_s1_p_hist}{{3.8d}{15}{Subfigure 3 3.8d\relax }{subfigure.3.8.4}{}}
\newlabel{sub@fig:p2f2_s1_p_hist}{{(d)}{d}{Subfigure 3 3.8d\relax }{subfigure.3.8.4}{}}
\newlabel{fig:p2f2_s2_p_hist}{{3.8e}{15}{Subfigure 3 3.8e\relax }{subfigure.3.8.5}{}}
\newlabel{sub@fig:p2f2_s2_p_hist}{{(e)}{e}{Subfigure 3 3.8e\relax }{subfigure.3.8.5}{}}
\newlabel{fig:p2f2_s3_p_hist}{{3.8f}{15}{Subfigure 3 3.8f\relax }{subfigure.3.8.6}{}}
\newlabel{sub@fig:p2f2_s3_p_hist}{{(f)}{f}{Subfigure 3 3.8f\relax }{subfigure.3.8.6}{}}
\@writefile{lof}{\defcounter {refsection}{0}\relax }\@writefile{lof}{\contentsline {figure}{\numberline {3.8}{\ignorespaces Retrieving samples after 3x3 arithmetic mean filter.\relax }}{15}{figure.caption.18}}
\@writefile{lof}{\defcounter {refsection}{0}\relax }\@writefile{lof}{\contentsline {subfigure}{\numberline{(a)}{\ignorespaces {}}}{15}{subfigure.8.1}}
\@writefile{lof}{\defcounter {refsection}{0}\relax }\@writefile{lof}{\contentsline {subfigure}{\numberline{(b)}{\ignorespaces {}}}{15}{subfigure.8.2}}
\@writefile{lof}{\defcounter {refsection}{0}\relax }\@writefile{lof}{\contentsline {subfigure}{\numberline{(c)}{\ignorespaces {}}}{15}{subfigure.8.3}}
\@writefile{lof}{\defcounter {refsection}{0}\relax }\@writefile{lof}{\contentsline {subfigure}{\numberline{(d)}{\ignorespaces {}}}{15}{subfigure.8.4}}
\@writefile{lof}{\defcounter {refsection}{0}\relax }\@writefile{lof}{\contentsline {subfigure}{\numberline{(e)}{\ignorespaces {}}}{15}{subfigure.8.5}}
\@writefile{lof}{\defcounter {refsection}{0}\relax }\@writefile{lof}{\contentsline {subfigure}{\numberline{(f)}{\ignorespaces {}}}{15}{subfigure.8.6}}
\@writefile{toc}{\defcounter {refsection}{0}\relax }\@writefile{toc}{\contentsline {section}{\numberline {3.3}Peppers 3}{16}{section.3.3}}
\newlabel{fig:p3f1_p}{{3.9a}{16}{Subfigure 3 3.9a\relax }{subfigure.3.9.1}{}}
\newlabel{sub@fig:p3f1_p}{{(a)}{a}{Subfigure 3 3.9a\relax }{subfigure.3.9.1}{}}
\newlabel{fig:p3f1_p_hist}{{3.9b}{16}{Subfigure 3 3.9b\relax }{subfigure.3.9.2}{}}
\newlabel{sub@fig:p3f1_p_hist}{{(b)}{b}{Subfigure 3 3.9b\relax }{subfigure.3.9.2}{}}
\@writefile{lof}{\defcounter {refsection}{0}\relax }\@writefile{lof}{\contentsline {figure}{\numberline {3.9}{\ignorespaces Analyzing image after 3x3 contraharmonic mean filter.\relax }}{16}{figure.caption.19}}
\@writefile{lof}{\defcounter {refsection}{0}\relax }\@writefile{lof}{\contentsline {subfigure}{\numberline{(a)}{\ignorespaces {}}}{16}{subfigure.9.1}}
\@writefile{lof}{\defcounter {refsection}{0}\relax }\@writefile{lof}{\contentsline {subfigure}{\numberline{(b)}{\ignorespaces {}}}{16}{subfigure.9.2}}
\newlabel{fig:p3f1_s1_p}{{3.10a}{17}{Subfigure 3 3.10a\relax }{subfigure.3.10.1}{}}
\newlabel{sub@fig:p3f1_s1_p}{{(a)}{a}{Subfigure 3 3.10a\relax }{subfigure.3.10.1}{}}
\newlabel{fig:p3f1_s2_p}{{3.10b}{17}{Subfigure 3 3.10b\relax }{subfigure.3.10.2}{}}
\newlabel{sub@fig:p3f1_s2_p}{{(b)}{b}{Subfigure 3 3.10b\relax }{subfigure.3.10.2}{}}
\newlabel{fig:p3f1_s3_p}{{3.10c}{17}{Subfigure 3 3.10c\relax }{subfigure.3.10.3}{}}
\newlabel{sub@fig:p3f1_s3_p}{{(c)}{c}{Subfigure 3 3.10c\relax }{subfigure.3.10.3}{}}
\newlabel{fig:p3f1_s1_p_hist}{{3.10d}{17}{Subfigure 3 3.10d\relax }{subfigure.3.10.4}{}}
\newlabel{sub@fig:p3f1_s1_p_hist}{{(d)}{d}{Subfigure 3 3.10d\relax }{subfigure.3.10.4}{}}
\newlabel{fig:p3f1_s2_p_hist}{{3.10e}{17}{Subfigure 3 3.10e\relax }{subfigure.3.10.5}{}}
\newlabel{sub@fig:p3f1_s2_p_hist}{{(e)}{e}{Subfigure 3 3.10e\relax }{subfigure.3.10.5}{}}
\newlabel{fig:p3f1_s3_p_hist}{{3.10f}{17}{Subfigure 3 3.10f\relax }{subfigure.3.10.6}{}}
\newlabel{sub@fig:p3f1_s3_p_hist}{{(f)}{f}{Subfigure 3 3.10f\relax }{subfigure.3.10.6}{}}
\@writefile{lof}{\defcounter {refsection}{0}\relax }\@writefile{lof}{\contentsline {figure}{\numberline {3.10}{\ignorespaces Retrieving samples after 3x3 contraharmonic mean filter.\relax }}{17}{figure.caption.20}}
\@writefile{lof}{\defcounter {refsection}{0}\relax }\@writefile{lof}{\contentsline {subfigure}{\numberline{(a)}{\ignorespaces {}}}{17}{subfigure.10.1}}
\@writefile{lof}{\defcounter {refsection}{0}\relax }\@writefile{lof}{\contentsline {subfigure}{\numberline{(b)}{\ignorespaces {}}}{17}{subfigure.10.2}}
\@writefile{lof}{\defcounter {refsection}{0}\relax }\@writefile{lof}{\contentsline {subfigure}{\numberline{(c)}{\ignorespaces {}}}{17}{subfigure.10.3}}
\@writefile{lof}{\defcounter {refsection}{0}\relax }\@writefile{lof}{\contentsline {subfigure}{\numberline{(d)}{\ignorespaces {}}}{17}{subfigure.10.4}}
\@writefile{lof}{\defcounter {refsection}{0}\relax }\@writefile{lof}{\contentsline {subfigure}{\numberline{(e)}{\ignorespaces {}}}{17}{subfigure.10.5}}
\@writefile{lof}{\defcounter {refsection}{0}\relax }\@writefile{lof}{\contentsline {subfigure}{\numberline{(f)}{\ignorespaces {}}}{17}{subfigure.10.6}}
\newlabel{fig:p3f2_p}{{3.11a}{17}{Subfigure 3 3.11a\relax }{subfigure.3.11.1}{}}
\newlabel{sub@fig:p3f2_p}{{(a)}{a}{Subfigure 3 3.11a\relax }{subfigure.3.11.1}{}}
\newlabel{fig:p3f2_p_hist}{{3.11b}{17}{Subfigure 3 3.11b\relax }{subfigure.3.11.2}{}}
\newlabel{sub@fig:p3f2_p_hist}{{(b)}{b}{Subfigure 3 3.11b\relax }{subfigure.3.11.2}{}}
\@writefile{lof}{\defcounter {refsection}{0}\relax }\@writefile{lof}{\contentsline {figure}{\numberline {3.11}{\ignorespaces Analyzing image after 3x3 median filter.\relax }}{17}{figure.caption.21}}
\@writefile{lof}{\defcounter {refsection}{0}\relax }\@writefile{lof}{\contentsline {subfigure}{\numberline{(a)}{\ignorespaces {}}}{17}{subfigure.11.1}}
\@writefile{lof}{\defcounter {refsection}{0}\relax }\@writefile{lof}{\contentsline {subfigure}{\numberline{(b)}{\ignorespaces {}}}{17}{subfigure.11.2}}
\newlabel{fig:p3f2_s1_p}{{3.12a}{18}{Subfigure 3 3.12a\relax }{subfigure.3.12.1}{}}
\newlabel{sub@fig:p3f2_s1_p}{{(a)}{a}{Subfigure 3 3.12a\relax }{subfigure.3.12.1}{}}
\newlabel{fig:p3f2_s2_p}{{3.12b}{18}{Subfigure 3 3.12b\relax }{subfigure.3.12.2}{}}
\newlabel{sub@fig:p3f2_s2_p}{{(b)}{b}{Subfigure 3 3.12b\relax }{subfigure.3.12.2}{}}
\newlabel{fig:p3f2_s3_p}{{3.12c}{18}{Subfigure 3 3.12c\relax }{subfigure.3.12.3}{}}
\newlabel{sub@fig:p3f2_s3_p}{{(c)}{c}{Subfigure 3 3.12c\relax }{subfigure.3.12.3}{}}
\newlabel{fig:p3f2_s1_p_hist}{{3.12d}{18}{Subfigure 3 3.12d\relax }{subfigure.3.12.4}{}}
\newlabel{sub@fig:p3f2_s1_p_hist}{{(d)}{d}{Subfigure 3 3.12d\relax }{subfigure.3.12.4}{}}
\newlabel{fig:p3f2_s2_p_hist}{{3.12e}{18}{Subfigure 3 3.12e\relax }{subfigure.3.12.5}{}}
\newlabel{sub@fig:p3f2_s2_p_hist}{{(e)}{e}{Subfigure 3 3.12e\relax }{subfigure.3.12.5}{}}
\newlabel{fig:p3f2_s3_p_hist}{{3.12f}{18}{Subfigure 3 3.12f\relax }{subfigure.3.12.6}{}}
\newlabel{sub@fig:p3f2_s3_p_hist}{{(f)}{f}{Subfigure 3 3.12f\relax }{subfigure.3.12.6}{}}
\@writefile{lof}{\defcounter {refsection}{0}\relax }\@writefile{lof}{\contentsline {figure}{\numberline {3.12}{\ignorespaces Retrieving samples after 3x3 median filter.\relax }}{18}{figure.caption.22}}
\@writefile{lof}{\defcounter {refsection}{0}\relax }\@writefile{lof}{\contentsline {subfigure}{\numberline{(a)}{\ignorespaces {}}}{18}{subfigure.12.1}}
\@writefile{lof}{\defcounter {refsection}{0}\relax }\@writefile{lof}{\contentsline {subfigure}{\numberline{(b)}{\ignorespaces {}}}{18}{subfigure.12.2}}
\@writefile{lof}{\defcounter {refsection}{0}\relax }\@writefile{lof}{\contentsline {subfigure}{\numberline{(c)}{\ignorespaces {}}}{18}{subfigure.12.3}}
\@writefile{lof}{\defcounter {refsection}{0}\relax }\@writefile{lof}{\contentsline {subfigure}{\numberline{(d)}{\ignorespaces {}}}{18}{subfigure.12.4}}
\@writefile{lof}{\defcounter {refsection}{0}\relax }\@writefile{lof}{\contentsline {subfigure}{\numberline{(e)}{\ignorespaces {}}}{18}{subfigure.12.5}}
\@writefile{lof}{\defcounter {refsection}{0}\relax }\@writefile{lof}{\contentsline {subfigure}{\numberline{(f)}{\ignorespaces {}}}{18}{subfigure.12.6}}
\@writefile{toc}{\defcounter {refsection}{0}\relax }\@writefile{toc}{\contentsline {section}{\numberline {3.4}Peppers 4}{19}{section.3.4}}
\newlabel{fig:p3f1_p}{{3.13a}{19}{Subfigure 3 3.13a\relax }{subfigure.3.13.1}{}}
\newlabel{sub@fig:p3f1_p}{{(a)}{a}{Subfigure 3 3.13a\relax }{subfigure.3.13.1}{}}
\newlabel{fig:p3f1_p_hist}{{3.13b}{19}{Subfigure 3 3.13b\relax }{subfigure.3.13.2}{}}
\newlabel{sub@fig:p3f1_p_hist}{{(b)}{b}{Subfigure 3 3.13b\relax }{subfigure.3.13.2}{}}
\@writefile{lof}{\defcounter {refsection}{0}\relax }\@writefile{lof}{\contentsline {figure}{\numberline {3.13}{\ignorespaces Analyzing image after a notch filter in the frequency domain.\relax }}{19}{figure.caption.23}}
\@writefile{lof}{\defcounter {refsection}{0}\relax }\@writefile{lof}{\contentsline {subfigure}{\numberline{(a)}{\ignorespaces {}}}{19}{subfigure.13.1}}
\@writefile{lof}{\defcounter {refsection}{0}\relax }\@writefile{lof}{\contentsline {subfigure}{\numberline{(b)}{\ignorespaces {}}}{19}{subfigure.13.2}}
\newlabel{fig:p4f1_s1_p}{{3.14a}{20}{Subfigure 3 3.14a\relax }{subfigure.3.14.1}{}}
\newlabel{sub@fig:p4f1_s1_p}{{(a)}{a}{Subfigure 3 3.14a\relax }{subfigure.3.14.1}{}}
\newlabel{fig:p4f1_s2_p}{{3.14b}{20}{Subfigure 3 3.14b\relax }{subfigure.3.14.2}{}}
\newlabel{sub@fig:p4f1_s2_p}{{(b)}{b}{Subfigure 3 3.14b\relax }{subfigure.3.14.2}{}}
\newlabel{fig:p4f1_s3_p}{{3.14c}{20}{Subfigure 3 3.14c\relax }{subfigure.3.14.3}{}}
\newlabel{sub@fig:p4f1_s3_p}{{(c)}{c}{Subfigure 3 3.14c\relax }{subfigure.3.14.3}{}}
\newlabel{fig:p4f1_s1_p_hist}{{3.14d}{20}{Subfigure 3 3.14d\relax }{subfigure.3.14.4}{}}
\newlabel{sub@fig:p4f1_s1_p_hist}{{(d)}{d}{Subfigure 3 3.14d\relax }{subfigure.3.14.4}{}}
\newlabel{fig:p4f1_s2_p_hist}{{3.14e}{20}{Subfigure 3 3.14e\relax }{subfigure.3.14.5}{}}
\newlabel{sub@fig:p4f1_s2_p_hist}{{(e)}{e}{Subfigure 3 3.14e\relax }{subfigure.3.14.5}{}}
\newlabel{fig:p4f1_s3_p_hist}{{3.14f}{20}{Subfigure 3 3.14f\relax }{subfigure.3.14.6}{}}
\newlabel{sub@fig:p4f1_s3_p_hist}{{(f)}{f}{Subfigure 3 3.14f\relax }{subfigure.3.14.6}{}}
\@writefile{lof}{\defcounter {refsection}{0}\relax }\@writefile{lof}{\contentsline {figure}{\numberline {3.14}{\ignorespaces Retrieving samples after performing a frequency notch filter.\relax }}{20}{figure.caption.24}}
\@writefile{lof}{\defcounter {refsection}{0}\relax }\@writefile{lof}{\contentsline {subfigure}{\numberline{(a)}{\ignorespaces {}}}{20}{subfigure.14.1}}
\@writefile{lof}{\defcounter {refsection}{0}\relax }\@writefile{lof}{\contentsline {subfigure}{\numberline{(b)}{\ignorespaces {}}}{20}{subfigure.14.2}}
\@writefile{lof}{\defcounter {refsection}{0}\relax }\@writefile{lof}{\contentsline {subfigure}{\numberline{(c)}{\ignorespaces {}}}{20}{subfigure.14.3}}
\@writefile{lof}{\defcounter {refsection}{0}\relax }\@writefile{lof}{\contentsline {subfigure}{\numberline{(d)}{\ignorespaces {}}}{20}{subfigure.14.4}}
\@writefile{lof}{\defcounter {refsection}{0}\relax }\@writefile{lof}{\contentsline {subfigure}{\numberline{(e)}{\ignorespaces {}}}{20}{subfigure.14.5}}
\@writefile{lof}{\defcounter {refsection}{0}\relax }\@writefile{lof}{\contentsline {subfigure}{\numberline{(f)}{\ignorespaces {}}}{20}{subfigure.14.6}}
\@writefile{toc}{\defcounter {refsection}{0}\relax }\@writefile{toc}{\contentsline {chapter}{\numberline {4}Conclusion}{21}{chapter.4}}
\@writefile{lof}{\defcounter {refsection}{0}\relax }\@writefile{lof}{\addvspace {10\p@ }}
\@writefile{lot}{\defcounter {refsection}{0}\relax }\@writefile{lot}{\addvspace {10\p@ }}
\newlabel{fig:p1_orig}{{4.1a}{21}{Subfigure 4 4.1a\relax }{subfigure.4.1.1}{}}
\newlabel{sub@fig:p1_orig}{{(a)}{a}{Subfigure 4 4.1a\relax }{subfigure.4.1.1}{}}
\newlabel{fig:p1_result}{{4.1b}{21}{Subfigure 4 4.1b\relax }{subfigure.4.1.2}{}}
\newlabel{sub@fig:p1_result}{{(b)}{b}{Subfigure 4 4.1b\relax }{subfigure.4.1.2}{}}
\@writefile{lof}{\defcounter {refsection}{0}\relax }\@writefile{lof}{\contentsline {figure}{\numberline {4.1}{\ignorespaces Peppers 1 and our result\relax }}{21}{figure.caption.25}}
\@writefile{lof}{\defcounter {refsection}{0}\relax }\@writefile{lof}{\contentsline {subfigure}{\numberline{(a)}{\ignorespaces {}}}{21}{subfigure.1.1}}
\@writefile{lof}{\defcounter {refsection}{0}\relax }\@writefile{lof}{\contentsline {subfigure}{\numberline{(b)}{\ignorespaces {}}}{21}{subfigure.1.2}}
\newlabel{fig:p2_orig}{{4.2a}{22}{Subfigure 4 4.2a\relax }{subfigure.4.2.1}{}}
\newlabel{sub@fig:p2_orig}{{(a)}{a}{Subfigure 4 4.2a\relax }{subfigure.4.2.1}{}}
\newlabel{fig:p2_result}{{4.2b}{22}{Subfigure 4 4.2b\relax }{subfigure.4.2.2}{}}
\newlabel{sub@fig:p2_result}{{(b)}{b}{Subfigure 4 4.2b\relax }{subfigure.4.2.2}{}}
\@writefile{lof}{\defcounter {refsection}{0}\relax }\@writefile{lof}{\contentsline {figure}{\numberline {4.2}{\ignorespaces Peppers 2 and our result\relax }}{22}{figure.caption.26}}
\@writefile{lof}{\defcounter {refsection}{0}\relax }\@writefile{lof}{\contentsline {subfigure}{\numberline{(a)}{\ignorespaces {}}}{22}{subfigure.2.1}}
\@writefile{lof}{\defcounter {refsection}{0}\relax }\@writefile{lof}{\contentsline {subfigure}{\numberline{(b)}{\ignorespaces {}}}{22}{subfigure.2.2}}
\newlabel{fig:p3_orig}{{4.3a}{22}{Subfigure 4 4.3a\relax }{subfigure.4.3.1}{}}
\newlabel{sub@fig:p3_orig}{{(a)}{a}{Subfigure 4 4.3a\relax }{subfigure.4.3.1}{}}
\newlabel{fig:p3_result}{{4.3b}{22}{Subfigure 4 4.3b\relax }{subfigure.4.3.2}{}}
\newlabel{sub@fig:p3_result}{{(b)}{b}{Subfigure 4 4.3b\relax }{subfigure.4.3.2}{}}
\@writefile{lof}{\defcounter {refsection}{0}\relax }\@writefile{lof}{\contentsline {figure}{\numberline {4.3}{\ignorespaces Peppers 3 and our result\relax }}{22}{figure.caption.27}}
\@writefile{lof}{\defcounter {refsection}{0}\relax }\@writefile{lof}{\contentsline {subfigure}{\numberline{(a)}{\ignorespaces {}}}{22}{subfigure.3.1}}
\@writefile{lof}{\defcounter {refsection}{0}\relax }\@writefile{lof}{\contentsline {subfigure}{\numberline{(b)}{\ignorespaces {}}}{22}{subfigure.3.2}}
\newlabel{fig:p4_orig}{{4.4a}{23}{Subfigure 4 4.4a\relax }{subfigure.4.4.1}{}}
\newlabel{sub@fig:p4_orig}{{(a)}{a}{Subfigure 4 4.4a\relax }{subfigure.4.4.1}{}}
\newlabel{fig:p4_result}{{4.4b}{23}{Subfigure 4 4.4b\relax }{subfigure.4.4.2}{}}
\newlabel{sub@fig:p4_result}{{(b)}{b}{Subfigure 4 4.4b\relax }{subfigure.4.4.2}{}}
\@writefile{lof}{\defcounter {refsection}{0}\relax }\@writefile{lof}{\contentsline {figure}{\numberline {4.4}{\ignorespaces Peppers 4 and our result\relax }}{23}{figure.caption.28}}
\@writefile{lof}{\defcounter {refsection}{0}\relax }\@writefile{lof}{\contentsline {subfigure}{\numberline{(a)}{\ignorespaces {}}}{23}{subfigure.4.1}}
\@writefile{lof}{\defcounter {refsection}{0}\relax }\@writefile{lof}{\contentsline {subfigure}{\numberline{(b)}{\ignorespaces {}}}{23}{subfigure.4.2}}
\@writefile{toc}{\defcounter {refsection}{0}\relax }\@writefile{toc}{\contentsline {chapter}{Bibliography}{24}{chapter*.29}}
\newlabel{LastPage}{{}{24}{}{page.24}{}}
\xdef\lastpage@lastpage{24}
\xdef\lastpage@lastpageHy{24}
